IcarusVerilog_HW/full_subtractor.vcd
$date
	Sat Nov 12 14:13:15 2022
$end
$version
	Icarus Verilog
$end
$timescale
	1s
$end
$scope module full_subtractor_tb $end
$var wire 1 ! D $end
$var wire 1 " B $end
$var reg 1 # X $end
$var reg 1 $ Y $end
$var reg 1 % Z $end
$scope module uut $end
$var wire 1 " B $end
$var wire 1 ! D $end
$var wire 1 # X $end
$var wire 1 $ Y $end
$var wire 1 % Z $end
$upscope $end
$upscope $end
$enddefinitions $end
#0
$dumpvars
0%
0$
0#
0"
0!
$end
#10
1"
1!
1%
#20
0%
1$
#30
0!
1%
#40
0"
1!
0%
0$
1#
#50
0!
1%
#60
0%
1$
#70
1"
1!
1%
